com/mangroo/temperature/data/Temperature$TemperatureBuilder.class
com/mangroo/temperature/data/DynamoDBConnectionType.class
com/mangroo/temperature/TemperatureStartup.class
com/mangroo/temperature/data/repo/TemperatureRepository.class
com/mangroo/utils/TemperatureConverter.class
com/mangroo/temperature/web/TemperatureController.class
com/mangroo/temperature/business/TemperatureService.class
com/mangroo/temperature/data/Temperature.class
com/mangroo/Application.class
com/mangroo/temperature/TemperatureConfiguration.class
com/mangroo/application/ApplicationConfiguration.class
com/mangroo/application/web/ApplicationController.class
com/mangroo/temperature/TemperatureConfiguration$1.class
